\relax 
\@writefile{toc}{\contentsline {section}{\numberline {1}converting from and between integral-types(integer-like types)}{1}}
\@writefile{toc}{\contentsline {section}{\numberline {2}converting from and between fractional-types}{2}}
\@writefile{toc}{\contentsline {section}{\numberline {3}converting from and between real-types}{2}}
\@writefile{toc}{\contentsline {section}{\numberline {4}converting from and between floating-point precision types}{2}}
\@writefile{toc}{\contentsline {section}{\numberline {5}unboxed and boxed types}{3}}
